18 Joining Data – COMP/STAT112 Notebook
…
# Then calculate GPA by department for only these courses
grades |>
  filter(sessionID %in% non_cross_listed) |>
  left_join(courses, by = "sessionID") |>
  left_join(gpa_conversion, by = "grade") |>
  group_by(dept) |>
  summarize(
    dept_gpa = mean(gp, na.rm = TRUE),
    n_grades = sum(!is.na(gp))
  ) |>
  filter(n_grades >= 30) |>  # Only include departments with sufficient data
  arrange(dept_gpa)

# A tibble: 31 × 3
   dept  dept_gpa n_grades
   <chr>    <dbl>    <int>
 1 M         3.10      393
 2 K         3.17       84
 3 G         3.18      218
 4 J         3.22      145
 5 T         3.23       53
 6 b         3.25       61
 7 F         3.30      231
 8 d         3.31      394
 9 i         3.35      172
10 X         3.38      124
# ℹ 21 more rows
…
