15 Data Wrangling – COMP/STAT112 Notebook
…
NOTE: Part a is a challenge exercise. If you get really stuck, move on to Part b which is the same overall question, but with hints.

# Sort the *states* from the most to least total votes cast in 2020
state_votes <- elections_small |>
  group_by(state_name) |>
  summarize(total_state_votes = sum(total_votes_20)) |>
  arrange(desc(total_state_votes))

Click to view states sorted by total votes

# States sorted by total votes (highest to lowest)
state_votes

# A tibble: 50 × 2
   state_name     total_state_votes
   <chr>                      <int>
 1 California              17495906
 2 Texas                   11317911
 3 Florida                 11067456
 4 New York                 8616205
 5 Pennsylvania             6925255
 6 Illinois                 6038850
 7 Ohio                     5922202
 8 Michigan                 5539302
 9 North Carolina           5524801
10 Georgia                  4997716
# ℹ 40 more rows
…
Click to view states won by Democrats

# States where Democrats won in 2020
dem_win_states

# A tibble: 26 × 3
   state_name    total_dem_votes total_repub_votes
   <chr>                   <dbl>             <dbl>
 1 California          11109643.          6006034.
 2 New York             5243939.          3250124.
 3 Illinois             3471918.          2446930.
 4 Pennsylvania         3459872.          3378227.
 5 Michigan             2804110.          2649813.
 6 New Jersey           2608345.          1883300.
 7 Georgia              2473656.          2461871.
 8 Virginia             2413537.          1962449.
 9 Massachusetts        2382218.          1167207.
10 Washington           2369591.          1584711.
# ℹ 16 more rows
…
Click to view states won by Democrats (with hint)

# States where Democrats won in 2020
dem_win_states_hint

# A tibble: 26 × 3
   state_name           total_dem_votes total_repub_votes
   <chr>                          <dbl>             <dbl>
 1 Arizona                     1672126.          1661672.
 2 California                 11109643.          6006034.
 3 Colorado                    1804395.          1364625.
 4 Connecticut                 1080677.           715315.
 5 Delaware                     296274.           200601.
 6 District of Columbia         317324.            18595.
 7 Georgia                     2473656.          2461871.
 8 Hawaii                       366121.           196866.
 9 Illinois                    3471918.          2446930.
10 Maine                        430466.           359898.
# ℹ 16 more rows
…
