16 Working with Dates – COMP/STAT112 Notebook
…
Build your code line by line. It’s important to understand what’s being piped into each function!

Ask what you can rearrange and still get the same result.

Read your final code like a paragraph / a conversation. Would another person be able to follow your logic?

# Sort Gentoo penguins from biggest to smallest with respect to their 
# bill length in cm (there are 10 mm in a cm)
penguins |>
  filter(species == "Gentoo") |>
  mutate(bill_length_cm = bill_length_mm / 10) |>
  arrange(desc(bill_length_cm))

# A tibble: 124 × 9
   species island bill_length_mm bill_depth_mm flipper_length_mm body_mass_g
   <chr>   <chr>           <dbl>         <dbl>             <dbl>       <dbl>
 1 Gentoo  Biscoe           59.6          17                 230        6050
 2 Gentoo  Biscoe           55.9          17                 228        5600
 3 Gentoo  Biscoe           55.1          16                 230        5850
 4 Gentoo  Biscoe           54.3          15.7               231        5650
 5 Gentoo  Biscoe           53.4          15.8               219        5500
 6 Gentoo  Biscoe           52.5          15.6               221        5450
 7 Gentoo  Biscoe           52.2          17.1               228        5400
 8 Gentoo  Biscoe           52.1          17                 230        5550
 9 Gentoo  Biscoe           51.5          16.3               230        5500
10 Gentoo  Biscoe           51.3          14.2               218        5300
# ℹ 114 more rows
# ℹ 3 more variables: sex <chr>, year <dbl>, bill_length_cm <dbl>
…
# How many total births were there in this time period?
Birthdays |>
  summarize(total_births = sum(births))

  total_births
1     70486538

# How many total births were there per state in this time period, sorted from low to high?
Birthdays |>
  group_by(state) |>
  summarize(total_births = sum(births)) |>
  arrange(total_births)

# A tibble: 51 × 2
   state total_births
   <chr>        <int>
 1 VT          147886
 2 WY          154019
 3 AK          185385
 4 DE          188705
 5 SD          235734
 6 ND          238696
 7 NV          241470
 8 MT          253884
 9 NH          264984
10 RI          265038
# ℹ 41 more rows
…
